<svg id="VA" viewBox="-150 -150 300 300" xmlns="http://www.w3.org/2000/svg">
   <circle r="147" cx="0" cy="0" style="stroke-width:5;fill:none;" id="circle2" />
   <g transform="translate(-368,-141)" id="g8">
      <path
         fill = "white"
         d="M 485.23296,209.96278 417.64687,72.268517 349.57112,209.96278 h 26.01436 l 42.06139,-89.68072 25.23922,51.45609 c 0,0 -17.23695,-5.19296 -27.24777,2.3039 31.79143,7.18761 38.51319,22.64123 38.51319,22.64123 l 7.41859,13.2795 z"
         id="path4" />
      <path
         fill = "white"
         d="M 251.02006,72.268517 318.60615,209.96283 386.6819,72.268564 h -26.01436 l -42.06139,89.680716 -25.23922,-51.45609 c 0,0 17.23695,5.19297 27.24777,-2.3039 -31.79143,-7.18765 -38.51319,-22.64123 -38.51319,-22.64123 l -7.41859,-13.279496 z"
         id="path6" />
   </g>
</svg>